{ "href": "https://api.spotify.com/v1/me/tracks?offset=0&limit=10", "items": [ { "added_at": "2020-09-13T08:58:20Z", "track": { "album": { "album_type": "single", "artists": [ { "external_urls": { "spotify": "https://open.spotify.com/artist/7LLBCtTpnXXkY6AvW0Qjy9" }, "href": "https://api.spotify.com/v1/artists/7LLBCtTpnXXkY6AvW0Qjy9", "id": "7LLBCtTpnXXkY6AvW0Qjy9", "name": "Silentroom", "type": "artist", "uri": "spotify:artist:7LLBCtTpnXXkY6AvW0Qjy9" } ], "available_markets": [ "AD", "AE", "AL", "AR", "AT", "AU", "BA", "BE", "BG", "BH", "BO", "BR", "BY", "CA", "CH", "CL", "CO", "CR", "CY", "CZ", "DE", "DK", "DO", "DZ", "EC", "EE", "EG", "ES", "FI", "FR", "GB", "GR", "GT", "HK", "HN", "HR", "HU", "ID", "IE", "IL", "IN", "IS", "IT", "JO", "KW", "KZ", "LB", "LI", "LT", "LU", "LV", "MA", "MC", "MD", "ME", "MK", "MT", "MX", "MY", "NI", "NL", "NO", "NZ", "OM", "PA", "PE", "PH", "PL", "PS", "PT", "PY", "QA", "RO", "RS", "RU", "SA", "SE", "SG", "SI", "SK", "SV", "TH", "TN", "TR", "TW", "UA", "US", "UY", "VN", "XK", "ZA" ], "external_urls": { "spotify": "https://open.spotify.com/album/45EZvEcfIa44K7ybNmHcRx" }, "href": "https://api.spotify.com/v1/albums/45EZvEcfIa44K7ybNmHcRx", "id": "45EZvEcfIa44K7ybNmHcRx", "images": [ { "height": 640, "url": "https://i.scdn.co/image/ab67616d0000b273d44a05d3f9a21754d6bdfcc6", "width": 640 }, { "height": 300, "url": "https://i.scdn.co/image/ab67616d00001e02d44a05d3f9a21754d6bdfcc6", "width": 300 }, { "height": 64, "url": "https://i.scdn.co/image/ab67616d00004851d44a05d3f9a21754d6bdfcc6", "width": 64 } ], "name": "Rainshower", "release_date": "2020-03-17", "release_date_precision": "day", "total_tracks": 1, "type": "album", "uri": "spotify:album:45EZvEcfIa44K7ybNmHcRx" }, "artists": [ { "external_urls": { "spotify": "https://open.spotify.com/artist/7LLBCtTpnXXkY6AvW0Qjy9" }, "href": "https://api.spotify.com/v1/artists/7LLBCtTpnXXkY6AvW0Qjy9", "id": "7LLBCtTpnXXkY6AvW0Qjy9", "name": "Silentroom", "type": "artist", "uri": "spotify:artist:7LLBCtTpnXXkY6AvW0Qjy9" } ], "available_markets": [ "AD", "AE", "AL", "AR", "AT", "AU", "BA", "BE", "BG", "BH", "BO", "BR", "BY", "CA", "CH", "CL", "CO", "CR", "CY", "CZ", "DE", "DK", "DO", "DZ", "EC", "EE", "EG", "ES", "FI", "FR", "GB", "GR", "GT", "HK", "HN", "HR", "HU", "ID", "IE", "IL", "IN", "IS", "IT", "JO", "KW", "KZ", "LB", "LI", "LT", "LU", "LV", "MA", "MC", "MD", "ME", "MK", "MT", "MX", "MY", "NI", "NL", "NO", "NZ", "OM", "PA", "PE", "PH", "PL", "PS", "PT", "PY", "QA", "RO", "RS", "RU", "SA", "SE", "SG", "SI", "SK", "SV", "TH", "TN", "TR", "TW", "UA", "US", "UY", "VN", "XK", "ZA" ], "disc_number": 1, "duration_ms": 226578, "explicit": false, "external_ids": { "isrc": "TCJPK2072225" }, "external_urls": { "spotify": "https://open.spotify.com/track/1KuGwsmFqXugHKkwniSdn5" }, "href": "https://api.spotify.com/v1/tracks/1KuGwsmFqXugHKkwniSdn5", "id": "1KuGwsmFqXugHKkwniSdn5", "is_local": false, "name": "Rainshower", "popularity": 19, "preview_url": "https://p.scdn.co/mp3-preview/30edac7a0cc2523a4765b341f78a49f7c0aa0b0d?cid=774b29d4f13844c495f206cafdad9c86", "track_number": 1, "type": "track", "uri": "spotify:track:1KuGwsmFqXugHKkwniSdn5" } }, { "added_at": "2020-09-12T17:17:41Z", "track": { "album": { "album_type": "single", "artists": [ { "external_urls": { "spotify": "https://open.spotify.com/artist/0QaiCsyOUjBgLqsbABu07O" }, "href": "https://api.spotify.com/v1/artists/0QaiCsyOUjBgLqsbABu07O", "id": "0QaiCsyOUjBgLqsbABu07O", "name": "Puppet", "type": "artist", "uri": "spotify:artist:0QaiCsyOUjBgLqsbABu07O" } ], "available_markets": [ "AD", "AE", "AL", "AR", "AT", "AU", "BA", "BE", "BG", "BH", "BO", "BR", "BY", "CA", "CH", "CL", "CO", "CR", "CY", "CZ", "DE", "DK", "DO", "DZ", "EC", "EE", "EG", "ES", "FI", "FR", "GB", "GR", "GT", "HK", "HN", "HR", "HU", "ID", "IE", "IL", "IN", "IS", "IT", "JO", "JP", "KW", "KZ", "LB", "LI", "LT", "LU", "LV", "MA", "MC", "MD", "ME", "MK", "MT", "MX", "MY", "NI", "NL", "NO", "NZ", "OM", "PA", "PE", "PH", "PL", "PS", "PT", "PY", "QA", "RO", "RS", "RU", "SA", "SE", "SG", "SI", "SK", "SV", "TH", "TN", "TR", "TW", "UA", "US", "UY", "VN", "XK", "ZA" ], "external_urls": { "spotify": "https://open.spotify.com/album/1dDR1fRRYtdS4PTaGrRFie" }, "href": "https://api.spotify.com/v1/albums/1dDR1fRRYtdS4PTaGrRFie", "id": "1dDR1fRRYtdS4PTaGrRFie", "images": [ { "height": 640, "url": "https://i.scdn.co/image/ab67616d0000b273b51a683e7e0a198d2accebe5", "width": 640 }, { "height": 300, "url": "https://i.scdn.co/image/ab67616d00001e02b51a683e7e0a198d2accebe5", "width": 300 }, { "height": 64, "url": "https://i.scdn.co/image/ab67616d00004851b51a683e7e0a198d2accebe5", "width": 64 } ], "name": "Dynamo", "release_date": "2017-11-15", "release_date_precision": "day", "total_tracks": 1, "type": "album", "uri": "spotify:album:1dDR1fRRYtdS4PTaGrRFie" }, "artists": [ { "external_urls": { "spotify": "https://open.spotify.com/artist/0QaiCsyOUjBgLqsbABu07O" }, "href": "https://api.spotify.com/v1/artists/0QaiCsyOUjBgLqsbABu07O", "id": "0QaiCsyOUjBgLqsbABu07O", "name": "Puppet", "type": "artist", "uri": "spotify:artist:0QaiCsyOUjBgLqsbABu07O" } ], "available_markets": [ "AD", "AE", "AL", "AR", "AT", "AU", "BA", "BE", "BG", "BH", "BO", "BR", "BY", "CA", "CH", "CL", "CO", "CR", "CY", "CZ", "DE", "DK", "DO", "DZ", "EC", "EE", "EG", "ES", "FI", "FR", "GB", "GR", "GT", "HK", "HN", "HR", "HU", "ID", "IE", "IL", "IN", "IS", "IT", "JO", "JP", "KW", "KZ", "LB", "LI", "LT", "LU", "LV", "MA", "MC", "MD", "ME", "MK", "MT", "MX", "MY", "NI", "NL", "NO", "NZ", "OM", "PA", "PE", "PH", "PL", "PS", "PT", "PY", "QA", "RO", "RS", "RU", "SA", "SE", "SG", "SI", "SK", "SV", "TH", "TN", "TR", "TW", "UA", "US", "UY", "VN", "XK", "ZA" ], "disc_number": 1, "duration_ms": 239873, "explicit": false, "external_ids": { "isrc": "CA6D21700297" }, "external_urls": { "spotify": "https://open.spotify.com/track/761FbINDmXnNgXCpPe50NQ" }, "href": "https://api.spotify.com/v1/tracks/761FbINDmXnNgXCpPe50NQ", "id": "761FbINDmXnNgXCpPe50NQ", "is_local": false, "name": "Dynamo", "popularity": 40, "preview_url": "https://p.scdn.co/mp3-preview/f39b5a5d2a762f0ec4d0639a104800d492d7c098?cid=774b29d4f13844c495f206cafdad9c86", "track_number": 1, "type": "track", "uri": "spotify:track:761FbINDmXnNgXCpPe50NQ" } }, { "added_at": "2020-09-12T10:11:30Z", "track": { "album": { "album_type": "album", "artists": [ { "external_urls": { "spotify": "https://open.spotify.com/artist/6mtABo05yeYtPftYEVfGoV" }, "href": "https://api.spotify.com/v1/artists/6mtABo05yeYtPftYEVfGoV", "id": "6mtABo05yeYtPftYEVfGoV", "name": "Clown Core", "type": "artist", "uri": "spotify:artist:6mtABo05yeYtPftYEVfGoV" } ], "available_markets": [ "AD", "AE", "AL", "AR", "AT", "AU", "BA", "BE", "BG", "BH", "BO", "BR", "BY", "CA", "CH", "CL", "CO", "CR", "CY", "CZ", "DE", "DK", "DO", "DZ", "EC", "EE", "EG", "ES", "FI", "FR", "GB", "GR", "GT", "HK", "HN", "HR", "HU", "ID", "IE", "IL", "IN", "IS", "IT", "JO", "JP", "KW", "KZ", "LB", "LI", "LT", "LU", "LV", "MA", "MC", "MD", "ME", "MK", "MT", "MX", "MY", "NI", "NL", "NO", "NZ", "OM", "PA", "PE", "PH", "PL", "PS", "PT", "PY", "QA", "RO", "RS", "RU", "SA", "SE", "SG", "SI", "SK", "SV", "TH", "TN", "TR", "TW", "UA", "US", "UY", "VN", "XK", "ZA" ], "external_urls": { "spotify": "https://open.spotify.com/album/4arqmekzS1Qnzu74ZTl7uV" }, "href": "https://api.spotify.com/v1/albums/4arqmekzS1Qnzu74ZTl7uV", "id": "4arqmekzS1Qnzu74ZTl7uV", "images": [ { "height": 640, "url": "https://i.scdn.co/image/ab67616d0000b27350c7a987ae3bb2ab966c8ad5", "width": 640 }, { "height": 300, "url": "https://i.scdn.co/image/ab67616d00001e0250c7a987ae3bb2ab966c8ad5", "width": 300 }, { "height": 64, "url": "https://i.scdn.co/image/ab67616d0000485150c7a987ae3bb2ab966c8ad5", "width": 64 } ], "name": "Toilet", "release_date": "2018-03-03", "release_date_precision": "day", "total_tracks": 9, "type": "album", "uri": "spotify:album:4arqmekzS1Qnzu74ZTl7uV" }, "artists": [ { "external_urls": { "spotify": "https://open.spotify.com/artist/6mtABo05yeYtPftYEVfGoV" }, "href": "https://api.spotify.com/v1/artists/6mtABo05yeYtPftYEVfGoV", "id": "6mtABo05yeYtPftYEVfGoV", "name": "Clown Core", "type": "artist", "uri": "spotify:artist:6mtABo05yeYtPftYEVfGoV" } ], "available_markets": [ "AD", "AE", "AL", "AR", "AT", "AU", "BA", "BE", "BG", "BH", "BO", "BR", "BY", "CA", "CH", "CL", "CO", "CR", "CY", "CZ", "DE", "DK", "DO", "DZ", "EC", "EE", "EG", "ES", "FI", "FR", "GB", "GR", "GT", "HK", "HN", "HR", "HU", "ID", "IE", "IL", "IN", "IS", "IT", "JO", "JP", "KW", "KZ", "LB", "LI", "LT", "LU", "LV", "MA", "MC", "MD", "ME", "MK", "MT", "MX", "MY", "NI", "NL", "NO", "NZ", "OM", "PA", "PE", "PH", "PL", "PS", "PT", "PY", "QA", "RO", "RS", "RU", "SA", "SE", "SG", "SI", "SK", "SV", "TH", "TN", "TR", "TW", "UA", "US", "UY", "VN", "XK", "ZA" ], "disc_number": 1, "duration_ms": 78000, "explicit": false, "external_ids": { "isrc": "QZBRF1807765" }, "external_urls": { "spotify": "https://open.spotify.com/track/4aiZrKBNXohYTyb1QuVevn" }, "href": "https://api.spotify.com/v1/tracks/4aiZrKBNXohYTyb1QuVevn", "id": "4aiZrKBNXohYTyb1QuVevn", "is_local": false, "name": "Google Your Own Death", "popularity": 39, "preview_url": "https://p.scdn.co/mp3-preview/6bca39ec082053fed1db275d2799244533ae14a5?cid=774b29d4f13844c495f206cafdad9c86", "track_number": 4, "type": "track", "uri": "spotify:track:4aiZrKBNXohYTyb1QuVevn" } }, { "added_at": "2020-08-30T11:05:16Z", "track": { "album": { "album_type": "album", "artists": [ { "external_urls": { "spotify": "https://open.spotify.com/artist/6B7hlHWFBeEw2LGfcDM7OR" }, "href": "https://api.spotify.com/v1/artists/6B7hlHWFBeEw2LGfcDM7OR", "id": "6B7hlHWFBeEw2LGfcDM7OR", "name": "Commix", "type": "artist", "uri": "spotify:artist:6B7hlHWFBeEw2LGfcDM7OR" } ], "available_markets": [ "AD", "AE", "AL", "AR", "AT", "AU", "BA", "BE", "BG", "BH", "BO", "BR", "BY", "CA", "CH", "CL", "CO", "CR", "CY", "CZ", "DE", "DK", "DO", "DZ", "EC", "EE", "EG", "ES", "FI", "FR", "GB", "GR", "GT", "HK", "HN", "HR", "HU", "ID", "IE", "IL", "IN", "IS", "IT", "JO", "JP", "KW", "KZ", "LB", "LI", "LT", "LU", "LV", "MA", "MC", "MD", "ME", "MK", "MT", "MX", "MY", "NI", "NL", "NO", "NZ", "OM", "PA", "PE", "PH", "PL", "PS", "PT", "PY", "QA", "RO", "RS", "RU", "SA", "SE", "SG", "SI", "SK", "SV", "TH", "TN", "TR", "TW", "UA", "US", "UY", "VN", "XK", "ZA" ], "external_urls": { "spotify": "https://open.spotify.com/album/53octrChM87me4UHC0qZUG" }, "href": "https://api.spotify.com/v1/albums/53octrChM87me4UHC0qZUG", "id": "53octrChM87me4UHC0qZUG", "images": [ { "height": 640, "url": "https://i.scdn.co/image/ab67616d0000b27313272d34b39d05f129f45886", "width": 640 }, { "height": 300, "url": "https://i.scdn.co/image/ab67616d00001e0213272d34b39d05f129f45886", "width": 300 }, { "height": 64, "url": "https://i.scdn.co/image/ab67616d0000485113272d34b39d05f129f45886", "width": 64 } ], "name": "Re:Call to Mind", "release_date": "2010-10-03", "release_date_precision": "day", "total_tracks": 11, "type": "album", "uri": "spotify:album:53octrChM87me4UHC0qZUG" }, "artists": [ { "external_urls": { "spotify": "https://open.spotify.com/artist/6B7hlHWFBeEw2LGfcDM7OR" }, "href": "https://api.spotify.com/v1/artists/6B7hlHWFBeEw2LGfcDM7OR", "id": "6B7hlHWFBeEw2LGfcDM7OR", "name": "Commix", "type": "artist", "uri": "spotify:artist:6B7hlHWFBeEw2LGfcDM7OR" } ], "available_markets": [ "AD", "AE", "AL", "AR", "AT", "AU", "BA", "BE", "BG", "BH", "BO", "BR", "BY", "CA", "CH", "CL", "CO", "CR", "CY", "CZ", "DE", "DK", "DO", "DZ", "EC", "EE", "EG", "ES", "FI", "FR", "GB", "GR", "GT", "HK", "HN", "HR", "HU", "ID", "IE", "IL", "IN", "IS", "IT", "JO", "JP", "KW", "KZ", "LB", "LI", "LT", "LU", "LV", "MA", "MC", "MD", "ME", "MK", "MT", "MX", "MY", "NI", "NL", "NO", "NZ", "OM", "PA", "PE", "PH", "PL", "PS", "PT", "PY", "QA", "RO", "RS", "RU", "SA", "SE", "SG", "SI", "SK", "SV", "TH", "TN", "TR", "TW", "UA", "US", "UY", "VN", "XK", "ZA" ], "disc_number": 1, "duration_ms": 338826, "explicit": false, "external_ids": { "isrc": "GBBHF1030397" }, "external_urls": { "spotify": "https://open.spotify.com/track/0d9rXl8jMY45BdVZ0tcCoK" }, "href": "https://api.spotify.com/v1/tracks/0d9rXl8jMY45BdVZ0tcCoK", "id": "0d9rXl8jMY45BdVZ0tcCoK", "is_local": false, "name": "Japanese Electronics - Instra:Mental Moog Remix", "popularity": 27, "preview_url": "https://p.scdn.co/mp3-preview/38334c14819bac61e470f7946be41a933842fbef?cid=774b29d4f13844c495f206cafdad9c86", "track_number": 1, "type": "track", "uri": "spotify:track:0d9rXl8jMY45BdVZ0tcCoK" } }, { "added_at": "2020-08-12T16:06:52Z", "track": { "album": { "album_type": "album", "artists": [ { "external_urls": { "spotify": "https://open.spotify.com/artist/0jMZY406RfgjK6PFKIRfAv" }, "href": "https://api.spotify.com/v1/artists/0jMZY406RfgjK6PFKIRfAv", "id": "0jMZY406RfgjK6PFKIRfAv", "name": "Kohmi Hirose", "type": "artist", "uri": "spotify:artist:0jMZY406RfgjK6PFKIRfAv" } ], "available_markets": [ "AD", "AE", "AL", "AR", "AT", "AU", "BA", "BE", "BG", "BH", "BO", "BR", "BY", "CA", "CH", "CL", "CO", "CR", "CY", "CZ", "DE", "DK", "DO", "DZ", "EC", "EE", "EG", "ES", "FI", "FR", "GB", "GR", "GT", "HK", "HN", "HR", "HU", "ID", "IE", "IL", "IN", "IS", "IT", "JO", "JP", "KW", "KZ", "LB", "LI", "LT", "LU", "LV", "MA", "MC", "MD", "ME", "MK", "MT", "MX", "MY", "NI", "NL", "NO", "NZ", "OM", "PA", "PE", "PH", "PL", "PS", "PT", "PY", "QA", "RO", "RS", "RU", "SA", "SE", "SG", "SI", "SK", "SV", "TH", "TN", "TR", "TW", "UA", "US", "UY", "VN", "XK", "ZA" ], "external_urls": { "spotify": "https://open.spotify.com/album/58VxqEGELxURZiC7887dho" }, "href": "https://api.spotify.com/v1/albums/58VxqEGELxURZiC7887dho", "id": "58VxqEGELxURZiC7887dho", "images": [ { "height": 640, "url": "https://i.scdn.co/image/ab67616d0000b2738ad66b39a6e3dd6b93ac2407", "width": 640 }, { "height": 300, "url": "https://i.scdn.co/image/ab67616d00001e028ad66b39a6e3dd6b93ac2407", "width": 300 }, { "height": 64, "url": "https://i.scdn.co/image/ab67616d000048518ad66b39a6e3dd6b93ac2407", "width": 64 } ], "name": "広瀬香美 THE BEST \"Love Winters\"", "release_date": "1998-11-11", "release_date_precision": "day", "total_tracks": 12, "type": "album", "uri": "spotify:album:58VxqEGELxURZiC7887dho" }, "artists": [ { "external_urls": { "spotify": "https://open.spotify.com/artist/0jMZY406RfgjK6PFKIRfAv" }, "href": "https://api.spotify.com/v1/artists/0jMZY406RfgjK6PFKIRfAv", "id": "0jMZY406RfgjK6PFKIRfAv", "name": "Kohmi Hirose", "type": "artist", "uri": "spotify:artist:0jMZY406RfgjK6PFKIRfAv" } ], "available_markets": [ "AD", "AE", "AL", "AR", "AT", "AU", "BA", "BE", "BG", "BH", "BO", "BR", "BY", "CA", "CH", "CL", "CO", "CR", "CY", "CZ", "DE", "DK", "DO", "DZ", "EC", "EE", "EG", "ES", "FI", "FR", "GB", "GR", "GT", "HK", "HN", "HR", "HU", "ID", "IE", "IL", "IN", "IS", "IT", "JO", "JP", "KW", "KZ", "LB", "LI", "LT", "LU", "LV", "MA", "MC", "MD", "ME", "MK", "MT", "MX", "MY", "NI", "NL", "NO", "NZ", "OM", "PA", "PE", "PH", "PL", "PS", "PT", "PY", "QA", "RO", "RS", "RU", "SA", "SE", "SG", "SI", "SK", "SV", "TH", "TN", "TR", "TW", "UA", "US", "UY", "VN", "XK", "ZA" ], "disc_number": 1, "duration_ms": 280996, "explicit": false, "external_ids": { "isrc": "JPVI09727570" }, "external_urls": { "spotify": "https://open.spotify.com/track/39rZVvBPsAc4h0BfPLUqOj" }, "href": "https://api.spotify.com/v1/tracks/39rZVvBPsAc4h0BfPLUqOj", "id": "39rZVvBPsAc4h0BfPLUqOj", "is_local": false, "name": "promise", "popularity": 42, "preview_url": "https://p.scdn.co/mp3-preview/619a1c1dfe1b041d3b080e9ab167db529cba87a4?cid=774b29d4f13844c495f206cafdad9c86", "track_number": 8, "type": "track", "uri": "spotify:track:39rZVvBPsAc4h0BfPLUqOj" } }, { "added_at": "2020-08-07T14:50:31Z", "track": { "album": { "album_type": "album", "artists": [ { "external_urls": { "spotify": "https://open.spotify.com/artist/30F64wQIHvLiFTGaNZ73nU" }, "href": "https://api.spotify.com/v1/artists/30F64wQIHvLiFTGaNZ73nU", "id": "30F64wQIHvLiFTGaNZ73nU", "name": "Sewerslvt", "type": "artist", "uri": "spotify:artist:30F64wQIHvLiFTGaNZ73nU" } ], "available_markets": [], "external_urls": { "spotify": "https://open.spotify.com/album/1U8qZw0wSIZaz5eVcdTPyG" }, "href": "https://api.spotify.com/v1/albums/1U8qZw0wSIZaz5eVcdTPyG", "id": "1U8qZw0wSIZaz5eVcdTPyG", "images": [ { "height": 640, "url": "https://i.scdn.co/image/ab67616d0000b2732dc4f3e3bf918cf813f77907", "width": 640 }, { "height": 300, "url": "https://i.scdn.co/image/ab67616d00001e022dc4f3e3bf918cf813f77907", "width": 300 }, { "height": 64, "url": "https://i.scdn.co/image/ab67616d000048512dc4f3e3bf918cf813f77907", "width": 64 } ], "name": "Drowning in the Sewer", "release_date": "2019-06-14", "release_date_precision": "day", "total_tracks": 14, "type": "album", "uri": "spotify:album:1U8qZw0wSIZaz5eVcdTPyG" }, "artists": [ { "external_urls": { "spotify": "https://open.spotify.com/artist/30F64wQIHvLiFTGaNZ73nU" }, "href": "https://api.spotify.com/v1/artists/30F64wQIHvLiFTGaNZ73nU", "id": "30F64wQIHvLiFTGaNZ73nU", "name": "Sewerslvt", "type": "artist", "uri": "spotify:artist:30F64wQIHvLiFTGaNZ73nU" } ], "available_markets": [], "disc_number": 1, "duration_ms": 510000, "explicit": false, "external_ids": { "isrc": "AUBEC1909658" }, "external_urls": { "spotify": "https://open.spotify.com/track/1iSkOi52B5YmY17jqpxV62" }, "href": "https://api.spotify.com/v1/tracks/1iSkOi52B5YmY17jqpxV62", "id": "1iSkOi52B5YmY17jqpxV62", "is_local": false, "name": "Lolibox", "popularity": 17, "preview_url": null, "track_number": 11, "type": "track", "uri": "spotify:track:1iSkOi52B5YmY17jqpxV62" } }, { "added_at": "2020-08-05T14:29:40Z", "track": { "album": { "album_type": "single", "artists": [ { "external_urls": { "spotify": "https://open.spotify.com/artist/1Q0ug0ZkUQ3pyfY8vKE730" }, "href": "https://api.spotify.com/v1/artists/1Q0ug0ZkUQ3pyfY8vKE730", "id": "1Q0ug0ZkUQ3pyfY8vKE730", "name": "TwoThirds", "type": "artist", "uri": "spotify:artist:1Q0ug0ZkUQ3pyfY8vKE730" } ], "available_markets": [ "AD", "AE", "AL", "AR", "AT", "AU", "BA", "BE", "BG", "BH", "BO", "BR", "BY", "CA", "CH", "CL", "CO", "CR", "CY", "CZ", "DE", "DK", "DO", "DZ", "EC", "EE", "EG", "ES", "FI", "FR", "GB", "GR", "GT", "HK", "HN", "HR", "HU", "ID", "IE", "IL", "IN", "IS", "IT", "JO", "JP", "KW", "KZ", "LB", "LI", "LT", "LU", "LV", "MA", "MC", "MD", "ME", "MK", "MT", "MX", "MY", "NI", "NL", "NO", "NZ", "OM", "PA", "PE", "PH", "PL", "PS", "PT", "PY", "QA", "RO", "RS", "RU", "SA", "SE", "SG", "SI", "SK", "SV", "TH", "TN", "TR", "TW", "UA", "US", "UY", "VN", "XK", "ZA" ], "external_urls": { "spotify": "https://open.spotify.com/album/64j5TWi1LnQlAqIU1WykcF" }, "href": "https://api.spotify.com/v1/albums/64j5TWi1LnQlAqIU1WykcF", "id": "64j5TWi1LnQlAqIU1WykcF", "images": [ { "height": 640, "url": "https://i.scdn.co/image/ab67616d0000b273d0b5c9e3d5326294a28b10b3", "width": 640 }, { "height": 300, "url": "https://i.scdn.co/image/ab67616d00001e02d0b5c9e3d5326294a28b10b3", "width": 300 }, { "height": 64, "url": "https://i.scdn.co/image/ab67616d00004851d0b5c9e3d5326294a28b10b3", "width": 64 } ], "name": "Epiphany", "release_date": "2011-09-26", "release_date_precision": "day", "total_tracks": 3, "type": "album", "uri": "spotify:album:64j5TWi1LnQlAqIU1WykcF" }, "artists": [ { "external_urls": { "spotify": "https://open.spotify.com/artist/1Q0ug0ZkUQ3pyfY8vKE730" }, "href": "https://api.spotify.com/v1/artists/1Q0ug0ZkUQ3pyfY8vKE730", "id": "1Q0ug0ZkUQ3pyfY8vKE730", "name": "TwoThirds", "type": "artist", "uri": "spotify:artist:1Q0ug0ZkUQ3pyfY8vKE730" }, { "external_urls": { "spotify": "https://open.spotify.com/artist/3CiuuHKIxxJPoNRvF94GtR" }, "href": "https://api.spotify.com/v1/artists/3CiuuHKIxxJPoNRvF94GtR", "id": "3CiuuHKIxxJPoNRvF94GtR", "name": "Veela", "type": "artist", "uri": "spotify:artist:3CiuuHKIxxJPoNRvF94GtR" }, { "external_urls": { "spotify": "https://open.spotify.com/artist/6RQ9kYbHisp1UUbnfwHNeU" }, "href": "https://api.spotify.com/v1/artists/6RQ9kYbHisp1UUbnfwHNeU", "id": "6RQ9kYbHisp1UUbnfwHNeU", "name": "Feint", "type": "artist", "uri": "spotify:artist:6RQ9kYbHisp1UUbnfwHNeU" } ], "available_markets": [ "AD", "AE", "AL", "AR", "AT", "AU", "BA", "BE", "BG", "BH", "BO", "BR", "BY", "CA", "CH", "CL", "CO", "CR", "CY", "CZ", "DE", "DK", "DO", "DZ", "EC", "EE", "EG", "ES", "FI", "FR", "GB", "GR", "GT", "HK", "HN", "HR", "HU", "ID", "IE", "IL", "IN", "IS", "IT", "JO", "JP", "KW", "KZ", "LB", "LI", "LT", "LU", "LV", "MA", "MC", "MD", "ME", "MK", "MT", "MX", "MY", "NI", "NL", "NO", "NZ", "OM", "PA", "PE", "PH", "PL", "PS", "PT", "PY", "QA", "RO", "RS", "RU", "SA", "SE", "SG", "SI", "SK", "SV", "TH", "TN", "TR", "TW", "UA", "US", "UY", "VN", "XK", "ZA" ], "disc_number": 1, "duration_ms": 429714, "explicit": false, "external_ids": { "isrc": "GB8KE1101261" }, "external_urls": { "spotify": "https://open.spotify.com/track/4raUe9c8X1PYDhMnbjssS3" }, "href": "https://api.spotify.com/v1/tracks/4raUe9c8X1PYDhMnbjssS3", "id": "4raUe9c8X1PYDhMnbjssS3", "is_local": false, "name": "Epiphany", "popularity": 41, "preview_url": "https://p.scdn.co/mp3-preview/f39cf58a1c66359fff0709412948f40a15aeb1cc?cid=774b29d4f13844c495f206cafdad9c86", "track_number": 1, "type": "track", "uri": "spotify:track:4raUe9c8X1PYDhMnbjssS3" } }, { "added_at": "2020-08-04T14:45:21Z", "track": { "album": { "album_type": "album", "artists": [ { "external_urls": { "spotify": "https://open.spotify.com/artist/30F64wQIHvLiFTGaNZ73nU" }, "href": "https://api.spotify.com/v1/artists/30F64wQIHvLiFTGaNZ73nU", "id": "30F64wQIHvLiFTGaNZ73nU", "name": "Sewerslvt", "type": "artist", "uri": "spotify:artist:30F64wQIHvLiFTGaNZ73nU" } ], "available_markets": [], "external_urls": { "spotify": "https://open.spotify.com/album/6YziuMsbVKLOiHhmU6926L" }, "href": "https://api.spotify.com/v1/albums/6YziuMsbVKLOiHhmU6926L", "id": "6YziuMsbVKLOiHhmU6926L", "images": [ { "height": 640, "url": "https://i.scdn.co/image/ab67616d0000b273b38c17afeb289585126e450f", "width": 640 }, { "height": 300, "url": "https://i.scdn.co/image/ab67616d00001e02b38c17afeb289585126e450f", "width": 300 }, { "height": 64, "url": "https://i.scdn.co/image/ab67616d00004851b38c17afeb289585126e450f", "width": 64 } ], "name": "Starving Slvts Always Get Their FIx", "release_date": "2019-04-18", "release_date_precision": "day", "total_tracks": 10, "type": "album", "uri": "spotify:album:6YziuMsbVKLOiHhmU6926L" }, "artists": [ { "external_urls": { "spotify": "https://open.spotify.com/artist/30F64wQIHvLiFTGaNZ73nU" }, "href": "https://api.spotify.com/v1/artists/30F64wQIHvLiFTGaNZ73nU", "id": "30F64wQIHvLiFTGaNZ73nU", "name": "Sewerslvt", "type": "artist", "uri": "spotify:artist:30F64wQIHvLiFTGaNZ73nU" } ], "available_markets": [], "disc_number": 1, "duration_ms": 149333, "explicit": true, "external_ids": { "isrc": "AUBEC1903484" }, "external_urls": { "spotify": "https://open.spotify.com/track/54wED3nfmqJRcAAlwNYY8h" }, "href": "https://api.spotify.com/v1/tracks/54wED3nfmqJRcAAlwNYY8h", "id": "54wED3nfmqJRcAAlwNYY8h", "is_local": false, "name": "Nowhere Past Oblivion", "popularity": 9, "preview_url": null, "track_number": 5, "type": "track", "uri": "spotify:track:54wED3nfmqJRcAAlwNYY8h" } }, { "added_at": "2020-08-03T22:09:44Z", "track": { "album": { "album_type": "single", "artists": [ { "external_urls": { "spotify": "https://open.spotify.com/artist/3DrIOrFjCFuhuUK7SQt8vL" }, "href": "https://api.spotify.com/v1/artists/3DrIOrFjCFuhuUK7SQt8vL", "id": "3DrIOrFjCFuhuUK7SQt8vL", "name": "Umbraid", "type": "artist", "uri": "spotify:artist:3DrIOrFjCFuhuUK7SQt8vL" } ], "available_markets": [ "AD", "AE", "AL", "AR", "AT", "AU", "BA", "BE", "BG", "BH", "BO", "BR", "BY", "CA", "CH", "CL", "CO", "CR", "CY", "CZ", "DE", "DK", "DO", "DZ", "EC", "EE", "EG", "ES", "FI", "FR", "GB", "GR", "GT", "HK", "HN", "HR", "HU", "ID", "IE", "IL", "IN", "IS", "IT", "JO", "JP", "KW", "KZ", "LB", "LI", "LT", "LU", "LV", "MA", "MC", "MD", "ME", "MK", "MT", "MX", "MY", "NI", "NL", "NO", "NZ", "OM", "PA", "PE", "PH", "PL", "PS", "PT", "PY", "QA", "RO", "RS", "RU", "SA", "SE", "SG", "SI", "SK", "SV", "TH", "TN", "TR", "TW", "UA", "US", "UY", "VN", "XK", "ZA" ], "external_urls": { "spotify": "https://open.spotify.com/album/3FwKtNDyI2mXV59cQPFlyi" }, "href": "https://api.spotify.com/v1/albums/3FwKtNDyI2mXV59cQPFlyi", "id": "3FwKtNDyI2mXV59cQPFlyi", "images": [ { "height": 640, "url": "https://i.scdn.co/image/ab67616d0000b273aca313e04819def01c017972", "width": 640 }, { "height": 300, "url": "https://i.scdn.co/image/ab67616d00001e02aca313e04819def01c017972", "width": 300 }, { "height": 64, "url": "https://i.scdn.co/image/ab67616d00004851aca313e04819def01c017972", "width": 64 } ], "name": "First Love Feeling", "release_date": "2019-05-15", "release_date_precision": "day", "total_tracks": 1, "type": "album", "uri": "spotify:album:3FwKtNDyI2mXV59cQPFlyi" }, "artists": [ { "external_urls": { "spotify": "https://open.spotify.com/artist/3DrIOrFjCFuhuUK7SQt8vL" }, "href": "https://api.spotify.com/v1/artists/3DrIOrFjCFuhuUK7SQt8vL", "id": "3DrIOrFjCFuhuUK7SQt8vL", "name": "Umbraid", "type": "artist", "uri": "spotify:artist:3DrIOrFjCFuhuUK7SQt8vL" } ], "available_markets": [ "AD", "AE", "AL", "AR", "AT", "AU", "BA", "BE", "BG", "BH", "BO", "BR", "BY", "CA", "CH", "CL", "CO", "CR", "CY", "CZ", "DE", "DK", "DO", "DZ", "EC", "EE", "EG", "ES", "FI", "FR", "GB", "GR", "GT", "HK", "HN", "HR", "HU", "ID", "IE", "IL", "IN", "IS", "IT", "JO", "JP", "KW", "KZ", "LB", "LI", "LT", "LU", "LV", "MA", "MC", "MD", "ME", "MK", "MT", "MX", "MY", "NI", "NL", "NO", "NZ", "OM", "PA", "PE", "PH", "PL", "PS", "PT", "PY", "QA", "RO", "RS", "RU", "SA", "SE", "SG", "SI", "SK", "SV", "TH", "TN", "TR", "TW", "UA", "US", "UY", "VN", "XK", "ZA" ], "disc_number": 1, "duration_ms": 322274, "explicit": false, "external_ids": { "isrc": "GBSMU6520844" }, "external_urls": { "spotify": "https://open.spotify.com/track/6Vk8JsDdW8JOPhp2fMKh8L" }, "href": "https://api.spotify.com/v1/tracks/6Vk8JsDdW8JOPhp2fMKh8L", "id": "6Vk8JsDdW8JOPhp2fMKh8L", "is_local": false, "name": "First Love Feeling", "popularity": 22, "preview_url": "https://p.scdn.co/mp3-preview/90cc25eab6dd682a7a40a7dbbac03d21008b92c1?cid=774b29d4f13844c495f206cafdad9c86", "track_number": 1, "type": "track", "uri": "spotify:track:6Vk8JsDdW8JOPhp2fMKh8L" } }, { "added_at": "2020-08-03T12:11:33Z", "track": { "album": { "album_type": "album", "artists": [ { "external_urls": { "spotify": "https://open.spotify.com/artist/17Vw9uuOYB7XYjPt0LNFN0" }, "href": "https://api.spotify.com/v1/artists/17Vw9uuOYB7XYjPt0LNFN0", "id": "17Vw9uuOYB7XYjPt0LNFN0", "name": "Machine Girl", "type": "artist", "uri": "spotify:artist:17Vw9uuOYB7XYjPt0LNFN0" } ], "available_markets": [ "AD", "AE", "AL", "AR", "AT", "AU", "BA", "BE", "BG", "BH", "BO", "BR", "BY", "CA", "CH", "CL", "CO", "CR", "CY", "CZ", "DE", "DK", "DO", "DZ", "EC", "EE", "EG", "ES", "FI", "FR", "GB", "GR", "GT", "HK", "HN", "HR", "HU", "ID", "IE", "IL", "IN", "IS", "IT", "JO", "JP", "KW", "KZ", "LB", "LI", "LT", "LU", "LV", "MA", "MC", "MD", "ME", "MK", "MT", "MX", "MY", "NI", "NL", "NO", "NZ", "OM", "PA", "PE", "PH", "PL", "PS", "PT", "PY", "QA", "RO", "RS", "RU", "SA", "SE", "SG", "SI", "SK", "SV", "TH", "TN", "TR", "TW", "UA", "US", "UY", "VN", "XK", "ZA" ], "external_urls": { "spotify": "https://open.spotify.com/album/11ZT8GIa7TzIBpr8dNLys8" }, "href": "https://api.spotify.com/v1/albums/11ZT8GIa7TzIBpr8dNLys8", "id": "11ZT8GIa7TzIBpr8dNLys8", "images": [ { "height": 640, "url": "https://i.scdn.co/image/ab67616d0000b273a6637a37512ab7cde6d8ccd0", "width": 640 }, { "height": 300, "url": "https://i.scdn.co/image/ab67616d00001e02a6637a37512ab7cde6d8ccd0", "width": 300 }, { "height": 64, "url": "https://i.scdn.co/image/ab67616d00004851a6637a37512ab7cde6d8ccd0", "width": 64 } ], "name": "The Ugly Art", "release_date": "2018-10-12", "release_date_precision": "day", "total_tracks": 16, "type": "album", "uri": "spotify:album:11ZT8GIa7TzIBpr8dNLys8" }, "artists": [ { "external_urls": { "spotify": "https://open.spotify.com/artist/17Vw9uuOYB7XYjPt0LNFN0" }, "href": "https://api.spotify.com/v1/artists/17Vw9uuOYB7XYjPt0LNFN0", "id": "17Vw9uuOYB7XYjPt0LNFN0", "name": "Machine Girl", "type": "artist", "uri": "spotify:artist:17Vw9uuOYB7XYjPt0LNFN0" } ], "available_markets": [ "AD", "AE", "AL", "AR", "AT", "AU", "BA", "BE", "BG", "BH", "BO", "BR", "BY", "CA", "CH", "CL", "CO", "CR", "CY", "CZ", "DE", "DK", "DO", "DZ", "EC", "EE", "EG", "ES", "FI", "FR", "GB", "GR", "GT", "HK", "HN", "HR", "HU", "ID", "IE", "IL", "IN", "IS", "IT", "JO", "JP", "KW", "KZ", "LB", "LI", "LT", "LU", "LV", "MA", "MC", "MD", "ME", "MK", "MT", "MX", "MY", "NI", "NL", "NO", "NZ", "OM", "PA", "PE", "PH", "PL", "PS", "PT", "PY", "QA", "RO", "RS", "RU", "SA", "SE", "SG", "SI", "SK", "SV", "TH", "TN", "TR", "TW", "UA", "US", "UY", "VN", "XK", "ZA" ], "disc_number": 1, "duration_ms": 241003, "explicit": true, "external_ids": { "isrc": "QZFZ52094700" }, "external_urls": { "spotify": "https://open.spotify.com/track/1jH2FVRWZdPTq4Kpj9YfsV" }, "href": "https://api.spotify.com/v1/tracks/1jH2FVRWZdPTq4Kpj9YfsV", "id": "1jH2FVRWZdPTq4Kpj9YfsV", "is_local": false, "name": "Full Metal Dipshit", "popularity": 24, "preview_url": "https://p.scdn.co/mp3-preview/902acd631876d03c61bb635fcfaff96b7e17a72e?cid=774b29d4f13844c495f206cafdad9c86", "track_number": 14, "type": "track", "uri": "spotify:track:1jH2FVRWZdPTq4Kpj9YfsV" } } ], "limit": 10, "next": "https://api.spotify.com/v1/me/tracks?offset=10&limit=10", "offset": 0, "previous": null, "total": 192}